project2/CPU.vcd
$date
	Mon Jan 04 23:20:24 2021
$end
$version
	Icarus Verilog
$end
$timescale
	1s
$end
$scope module testbench $end
$var wire 256 ! mem_cpu_data [255:0] $end
$var wire 1 " mem_cpu_ack $end
$var wire 1 # cpu_mem_write $end
$var wire 1 $ cpu_mem_enable $end
$var wire 256 % cpu_mem_data [255:0] $end
$var wire 32 & cpu_mem_addr [31:0] $end
$var reg 1 ' Clk $end
$var reg 1 ( Reset $end
$var reg 1 ) Start $end
$var reg 27 * address [26:0] $end
$var reg 1 + flag $end
$var reg 4 , index [3:0] $end
$var reg 25 - tag [24:0] $end
$var integer 32 . counter [31:0] $end
$var integer 32 / i [31:0] $end
$var integer 32 0 j [31:0] $end
$var integer 32 1 outfile [31:0] $end
$var integer 32 2 outfile2 [31:0] $end
$scope module CPU $end
$var wire 1 ' clk_i $end
$var wire 1 ( rst_i $end
$var wire 1 ) start_i $end
$var wire 1 3 stall $end
$var wire 32 4 rs2_IDEX [31:0] $end
$var wire 32 5 rs2_EXMEM [31:0] $end
$var wire 32 6 rs2 [31:0] $end
$var wire 32 7 rs1_IDEX [31:0] $end
$var wire 32 8 rs1 [31:0] $end
$var wire 5 9 rd_IDEX [4:0] $end
$var wire 32 : memory_out_MEMWB [31:0] $end
$var wire 32 ; memory_out [31:0] $end
$var wire 1 # mem_write_o $end
$var wire 1 $ mem_enable_o $end
$var wire 256 < mem_data_o [255:0] $end
$var wire 256 = mem_data_i [255:0] $end
$var wire 32 > mem_addr_o [31:0] $end
$var wire 1 " mem_ack_i $end
$var wire 32 ? instr_addr_out [31:0] $end
$var wire 32 @ instr_addr_nobranch [31:0] $end
$var wire 32 A instr_addr_in [31:0] $end
$var wire 32 B instr_addr_branch [31:0] $end
$var wire 32 C instr_addr_IFID [31:0] $end
$var wire 32 D instr_IFID [31:0] $end
$var wire 32 E instr [31:0] $end
$var wire 32 F imm_IDEX [31:0] $end
$var wire 32 G imm [31:0] $end
$var wire 7 H func7 [6:0] $end
$var wire 3 I func3 [2:0] $end
$var wire 1 J cpu_stall_o $end
$var wire 1 K branch $end
$var wire 32 L addnum [31:0] $end
$var wire 32 M WB_WriteData [31:0] $end
$var wire 1 N WB_RegWrite $end
$var wire 5 O WB_Rd [4:0] $end
$var wire 1 P RegWrite_IDEX $end
$var wire 1 Q RegWrite $end
$var wire 1 R PCWrite $end
$var wire 1 S NoOp $end
$var wire 1 T MemtoReg_MEMWB $end
$var wire 1 U MemtoReg_IDEX $end
$var wire 1 V MemtoReg_EXMEM $end
$var wire 1 W MemtoReg $end
$var wire 1 X MemWrite_IDEX $end
$var wire 1 Y MemWrite_EXMEM $end
$var wire 1 Z MemWrite $end
$var wire 1 [ MemRead_IDEX $end
$var wire 1 \ MemRead_EXMEM $end
$var wire 1 ] MemRead $end
$var wire 32 ^ MUX_rs2 [31:0] $end
$var wire 1 _ MEM_RegWrite $end
$var wire 5 ` MEM_Rd [4:0] $end
$var wire 32 a MEM_ALUResult [31:0] $end
$var wire 2 b ForwardB [1:0] $end
$var wire 2 c ForwardA [1:0] $end
$var wire 5 d EX_Rs2 [4:0] $end
$var wire 5 e EX_Rs1 [4:0] $end
$var wire 1 f Control_branch $end
$var wire 1 g ALUsrc_IDEX $end
$var wire 32 h ALUsrc1 [31:0] $end
$var wire 1 i ALUsrc $end
$var wire 32 j ALUout_MEMWB [31:0] $end
$var wire 32 k ALUout [31:0] $end
$var wire 2 l ALUop_IDEX [1:0] $end
$var wire 2 m ALUop [1:0] $end
$var wire 3 n ALUCtrl [2:0] $end
$scope module ALU $end
$var wire 32 o rs2 [31:0] $end
$var wire 32 p rs1 [31:0] $end
$var wire 3 q ALUCrtl [2:0] $end
$var reg 32 r data_o [31:0] $end
$var reg 5 s tmp [4:0] $end
$upscope $end
$scope module ALU_Control $end
$var wire 7 t func7 [6:0] $end
$var wire 3 u func3 [2:0] $end
$var wire 2 v ALUop [1:0] $end
$var reg 3 w ALUCrtl [2:0] $end
$upscope $end
$scope module Adder $end
$var wire 32 x data1 [31:0] $end
$var reg 32 y data_o [31:0] $end
$upscope $end
$scope module Branch $end
$var wire 1 K branch $end
$var wire 32 z rd2 [31:0] $end
$var wire 32 { rd1 [31:0] $end
$var wire 1 f control_branch $end
$upscope $end
$scope module Control $end
$var wire 7 | opcode [6:0] $end
$var wire 1 S NoOp $end
$var reg 2 } ALUop [1:0] $end
$var reg 1 i ALUsrc $end
$var reg 1 f Branch $end
$var reg 1 ] MemRead $end
$var reg 1 Z MemWrite $end
$var reg 1 W MemtoReg $end
$var reg 1 Q RegWrite $end
$upscope $end
$scope module EX_MEMReg $end
$var wire 32 ~ ALUout_i [31:0] $end
$var wire 1 ' clk_i $end
$var wire 1 J stall_i $end
$var wire 32 !" rs2_i [31:0] $end
$var wire 5 "" rd_i [4:0] $end
$var wire 1 P RegWrite_i $end
$var wire 1 U MemtoReg_i $end
$var wire 1 X MemWrite_i $end
$var wire 1 [ MemRead_i $end
$var reg 32 #" ALUout_o [31:0] $end
$var reg 1 \ MemRead_o $end
$var reg 1 Y MemWrite_o $end
$var reg 1 V MemtoReg_o $end
$var reg 1 _ RegWrite_o $end
$var reg 5 $" rd_o [4:0] $end
$var reg 32 %" rs2_o [31:0] $end
$upscope $end
$scope module Forwarding_Unit $end
$var wire 5 &" MEM_Rd [4:0] $end
$var wire 1 _ MEM_RegWrite $end
$var wire 1 N WB_RegWrite $end
$var wire 5 '" WB_Rd [4:0] $end
$var wire 5 (" EX_Rs2 [4:0] $end
$var wire 5 )" EX_Rs1 [4:0] $end
$var reg 2 *" ForwardA [1:0] $end
$var reg 2 +" ForwardB [1:0] $end
$upscope $end
$scope module Hazard_Detection_Unit $end
$var wire 1 f branch_control $end
$var wire 5 ," rs1 [4:0] $end
$var wire 5 -" rs2 [4:0] $end
$var wire 5 ." rd [4:0] $end
$var wire 1 [ Memread $end
$var reg 1 S NoOp $end
$var reg 1 R PCwrite $end
$var reg 1 /" prevlw $end
$var reg 5 0" prevlwrd [4:0] $end
$var reg 1 3 stall $end
$upscope $end
$scope module ID_EXReg $end
$var wire 2 1" ALUop_i [1:0] $end
$var wire 1 i ALUsrc_i $end
$var wire 5 2" ID_rs1_i [4:0] $end
$var wire 5 3" ID_rs2_i [4:0] $end
$var wire 1 ] MemRead_i $end
$var wire 1 Z MemWrite_i $end
$var wire 1 W MemtoReg_i $end
$var wire 1 Q RegWrite_i $end
$var wire 1 ' clk_i $end
$var wire 3 4" func3_i [2:0] $end
$var wire 7 5" func7_i [6:0] $end
$var wire 5 6" rd_i [4:0] $end
$var wire 1 J stall_i $end
$var wire 32 7" rs2_i [31:0] $end
$var wire 32 8" rs1_i [31:0] $end
$var wire 32 9" imm_i [31:0] $end
$var reg 2 :" ALUop_o [1:0] $end
$var reg 1 g ALUsrc_o $end
$var reg 5 ;" EX_Rs1 [4:0] $end
$var reg 5 <" EX_Rs2 [4:0] $end
$var reg 1 [ MemRead_o $end
$var reg 1 X MemWrite_o $end
$var reg 1 U MemtoReg_o $end
$var reg 1 P RegWrite_o $end
$var reg 3 =" func3_o [2:0] $end
$var reg 7 >" func7_o [6:0] $end
$var reg 32 ?" imm_o [31:0] $end
$var reg 5 @" rd_o [4:0] $end
$var reg 32 A" rs1_o [31:0] $end
$var reg 32 B" rs2_o [31:0] $end
$upscope $end
$scope module IF_IDReg $end
$var wire 1 ' clk_i $end
$var wire 1 K flush $end
$var wire 1 3 stall $end
$var wire 1 J stall2_i $end
$var wire 32 C" instr [31:0] $end
$var wire 32 D" PC [31:0] $end
$var reg 32 E" PC_o [31:0] $end
$var reg 32 F" instr_o [31:0] $end
$upscope $end
$scope module Imm_Gen $end
$var wire 2 G" ALUop [1:0] $end
$var wire 12 H" I_imm [11:0] $end
$var wire 1 Z MemWrite $end
$var wire 12 I" SB_imm [11:0] $end
$var reg 32 J" data_o [31:0] $end
$upscope $end
$scope module Instruction_Memory $end
$var wire 32 K" instr_o [31:0] $end
$var wire 32 L" addr_i [31:0] $end
$upscope $end
$scope module MEM_WBReg $end
$var wire 32 M" ALUout_i [31:0] $end
$var wire 1 V MemtoReg_i $end
$var wire 1 _ RegWrite_i $end
$var wire 1 ' clk_i $end
$var wire 5 N" rd_i [4:0] $end
$var wire 1 J stall_i $end
$var wire 32 O" Memout_i [31:0] $end
$var reg 32 P" ALUout_o [31:0] $end
$var reg 32 Q" Memout_o [31:0] $end
$var reg 1 T MemtoReg_o $end
$var reg 1 N RegWrite_o $end
$var reg 5 R" rd_o [4:0] $end
$upscope $end
$scope module MUX_ALUSrc $end
$var wire 1 g ALUsrc $end
$var wire 32 S" imm [31:0] $end
$var wire 32 T" rs2 [31:0] $end
$var reg 32 U" data_o [31:0] $end
$upscope $end
$scope module MUX_PC $end
$var wire 32 V" addr_nobranch [31:0] $end
$var wire 1 K branch $end
$var wire 32 W" addr_out [31:0] $end
$var wire 32 X" addr_branch [31:0] $end
$upscope $end
$scope module MUX_Reg1 $end
$var wire 2 Y" ForwardA [1:0] $end
$var wire 32 Z" MEM_ALUResult [31:0] $end
$var wire 32 [" rs1_IDEX [31:0] $end
$var wire 32 \" WB_WriteData [31:0] $end
$var reg 32 ]" ALUsrc1 [31:0] $end
$upscope $end
$scope module MUX_Reg2 $end
$var wire 2 ^" ForwardB [1:0] $end
$var wire 32 _" MEM_ALUResult [31:0] $end
$var wire 32 `" rs2_IDEX [31:0] $end
$var wire 32 a" WB_WriteData [31:0] $end
$var reg 32 b" MUX_rs2 [31:0] $end
$upscope $end
$scope module MUXans $end
$var wire 32 c" ALUout [31:0] $end
$var wire 1 T MemtoReg $end
$var wire 32 d" memory_out [31:0] $end
$var reg 32 e" ans [31:0] $end
$upscope $end
$scope module PC $end
$var wire 1 R PCWrite_i $end
$var wire 1 ' clk_i $end
$var wire 32 f" pc_i [31:0] $end
$var wire 1 ( rst_i $end
$var wire 1 ) start_i $end
$var wire 1 J stall_i $end
$var reg 32 g" pc_o [31:0] $end
$upscope $end
$scope module Registers $end
$var wire 5 h" RDaddr_i [4:0] $end
$var wire 32 i" RDdata_i [31:0] $end
$var wire 5 j" RS1addr_i [4:0] $end
$var wire 5 k" RS2addr_i [4:0] $end
$var wire 1 N RegWrite_i $end
$var wire 1 ' clk_i $end
$var wire 32 l" RS2data_o [31:0] $end
$var wire 32 m" RS1data_o [31:0] $end
$upscope $end
$scope module addr_branch $end
$var wire 32 n" addr_cur [31:0] $end
$var wire 32 o" addr_offset [31:0] $end
$var wire 32 p" addr_branch [31:0] $end
$upscope $end
$scope module dcache $end
$var wire 1 q" cache_dirty $end
$var wire 1 r" cache_sram_enable $end
$var wire 4 s" cache_sram_index [3:0] $end
$var wire 1 t" cache_sram_write $end
$var wire 1 ' clk_i $end
$var wire 1 \ cpu_MemRead_i $end
$var wire 1 Y cpu_MemWrite_i $end
$var wire 32 u" cpu_addr_i [31:0] $end
$var wire 32 v" cpu_data_i [31:0] $end
$var wire 32 w" cpu_data_o [31:0] $end
$var wire 1 x" cpu_req $end
$var wire 1 J cpu_stall_o $end
$var wire 256 y" mem_data_o [255:0] $end
$var wire 1 $ mem_enable_o $end
$var wire 1 # mem_write_o $end
$var wire 256 z" r_hit_data [255:0] $end
$var wire 1 ( rst_i $end
$var wire 1 {" write_hit $end
$var wire 1 |" sram_valid $end
$var wire 22 }" sram_tag [21:0] $end
$var wire 1 ~" sram_dirty $end
$var wire 25 !# sram_cache_tag [24:0] $end
$var wire 256 "# sram_cache_data [255:0] $end
$var wire 256 ## mem_data_i [255:0] $end
$var wire 32 $# mem_addr_o [31:0] $end
$var wire 1 " mem_ack_i $end
$var wire 1 %# hit $end
$var wire 23 &# cpu_tag [22:0] $end
$var wire 5 '# cpu_offset [4:0] $end
$var wire 4 (# cpu_index [3:0] $end
$var wire 25 )# cache_sram_tag [24:0] $end
$var wire 256 *# cache_sram_data [255:0] $end
$var reg 1 +# cache_write $end
$var reg 32 ,# cpu_data [31:0] $end
$var reg 1 -# mem_enable $end
$var reg 1 .# mem_write $end
$var reg 3 /# state [2:0] $end
$var reg 256 0# w_hit_data [255:0] $end
$var reg 1 1# write_back $end
$scope module dcache_sram $end
$var wire 4 2# addr_i [3:0] $end
$var wire 1 ' clk_i $end
$var wire 256 3# data_i [255:0] $end
$var wire 1 r" enable_i $end
$var wire 1 ( rst_i $end
$var wire 25 4# tag_i [24:0] $end
$var wire 1 t" write_i $end
$var reg 256 5# data_o [255:0] $end
$var reg 1 %# hit_o $end
$var reg 25 6# tag_o [24:0] $end
$var integer 32 7# i [31:0] $end
$var integer 32 8# j [31:0] $end
$upscope $end
$upscope $end
$upscope $end
$scope module Data_Memory $end
$var wire 1 " ack_o $end
$var wire 32 9# addr_i [31:0] $end
$var wire 1 ' clk_i $end
$var wire 256 :# data_i [255:0] $end
$var wire 256 ;# data_o [255:0] $end
$var wire 1 $ enable_i $end
$var wire 1 ( rst_i $end
$var wire 1 # write_i $end
$var wire 27 <# addr [26:0] $end
$var reg 4 =# count [3:0] $end
$var reg 256 ># data [255:0] $end
$var reg 2 ?# state [1:0] $end
$upscope $end
$upscope $end
$enddefinitions $end
#0
$dumpvars
b0 ?#
bx >#
b0 =#
bx <#
bx ;#
bx :#
bx00000 9#
b10 8#
b10000 7#
bx 6#
bx 5#
b1xxxxxxxxxxxxxxxxxxxxxxxx 4#
bx 3#
bx 2#
01#
bx 0#
b0 /#
0.#
0-#
bx ,#
0+#
bx *#
b1xxxxxxxxxxxxxxxxxxxxxxxx )#
bx (#
bx '#
bx &#
x%#
bx00000 $#
bx ##
bx "#
bx !#
x~"
bx }"
x|"
x{"
bx z"
bx y"
xx"
bx w"
bx v"
bx u"
xt"
bx s"
xr"
xq"
bx p"
bx o"
bx n"
bx m"
bx l"
bx k"
bx j"
bx i"
bx h"
b0 g"
bx f"
bx e"
bx d"
bx c"
bx b"
bx a"
bx `"
bx _"
bx ^"
bx ]"
bx \"
bx ["
bx Z"
bx Y"
bx X"
bx W"
b100 V"
bx U"
bx T"
bx S"
bx R"
bx Q"
bx P"
bx O"
bx N"
bx M"
b0 L"
bx K"
bx J"
bx I"
bx H"
bx G"
bx F"
bx E"
b0 D"
bx C"
bx B"
bx A"
bx @"
bx ?"
bx >"
bx ="
bx <"
bx ;"
bx :"
bx 9"
bx 8"
bx 7"
bx 6"
bx 5"
bx 4"
bx 3"
bx 2"
bx 1"
b0 0"
0/"
bx ."
bx -"
bx ,"
bx +"
bx *"
bx )"
bx ("
bx '"
bx &"
bx %"
bx $"
bx #"
bx ""
bx !"
bx ~
bx }
bx |
bx {
bx z
b100 y
b0 x
bx w
bx v
bx u
bx t
bx s
bx r
bx q
bx p
bx o
bx n
bx m
bx l
bx k
bx j
xi
bx h
xg
xf
bx e
bx d
bx c
bx b
bx a
bx `
x_
bx ^
x]
x\
x[
xZ
xY
xX
xW
xV
xU
xT
xS
xR
xQ
xP
bx O
xN
bx M
bx L
xK
xJ
bx I
bx H
bx G
bx F
bx E
bx D
bx C
bx B
bx A
b100 @
b0 ?
bx00000 >
bx =
bx <
bx ;
bx :
bx 9
bx 8
bx 7
bx 6
bx 5
bx 4
x3
bx 2
bx 1
bx 0
bx /
b0 .
bx -
bx ,
x+
bx *
0)
1(
0'
bx00000 &
bx %
0$
0#
0"
bx !
$end
#12
b0 k
b0 r
b0 ~
b0 L
b0 o
b0 U"
b0 B
b0 X"
b0 p"
b0 G
b0 9"
b0 J"
b0 o"
b0 M
b0 \"
b0 a"
b0 e"
b0 i"
bx00000000000000000000000000000000 0#
b0 <#
b100 A
b100 W"
b100 f"
b0 &
b0 >
b0 $#
b0 9#
0t"
0J
b0 ^
b0 !"
b0 T"
b0 b"
b0 h
b0 p
b0 ]"
b0 6
b0 z
b0 7"
b0 l"
b0 8
b0 {
b0 8"
b0 m"
0K
b0 &#
b0 s"
b0 2#
b0 (#
b0 '#
b1000000000000000000000000 )#
b1000000000000000000000000 4#
0q"
0{"
0r"
0x"
b0 b
b0 +"
b0 ^"
b0 c
b0 *"
b0 Y"
b110 n
b110 q
b110 w
1R
0S
03
b0 -"
b0 ,"
b0 6"
b0 3"
b0 2"
b0 4"
b0 5"
b0 I"
b0 H"
b0 k"
b0 j"
b0 |
0f
0Z
0]
0W
0Q
0i
b0 m
b0 }
b0 1"
b0 G"
b0 O
b0 '"
b0 R"
b0 h"
b0 :
b0 Q"
b0 d"
b0 j
b0 P"
b0 c"
0T
0N
b0 `
b0 $"
b0 &"
b0 N"
b0 5
b0 %"
b0 v"
b0 a
b0 #"
b0 M"
b0 Z"
b0 _"
b0 u"
0Y
0\
0V
0_
b0 9
b0 ""
b0 ."
b0 @"
b0 I
b0 u
b0 ="
b0 H
b0 t
b0 >"
b0 F
b0 ?"
b0 S"
b0 4
b0 B"
b0 `"
b0 7
b0 A"
b0 ["
0g
b0 l
b0 v
b0 :"
0X
0[
0U
0P
b0 D
b0 F"
b0 C
b0 E"
b0 n"
b101 2
b11 1
b10 0
b10010000000011 E
b10010000000011 C"
b10010000000011 K"
b1000000000 /
1)
0(
#25
b1000 A
b1000 W"
b1000 f"
b1000 @
b1000 y
b1000 V"
1]
1W
1Q
1i
b1000 6"
b10 4"
b1000 I"
b11 |
b10000000010010010000011 E
b10000000010010010000011 C"
b10000000010010010000011 K"
b10010000000011 D
b10010000000011 F"
b0 d
b0 ("
b0 <"
b0 e
b0 )"
b0 ;"
bx :
bx Q"
bx d"
b100 ?
b100 x
b100 D"
b100 L"
b100 g"
b1 .
0+
1'
#50
0'
#75
b1100 A
b1100 W"
b1100 f"
b100 G
b100 9"
b100 J"
b100 o"
b1100 @
b1100 y
b1100 V"
b11 n
b11 q
b11 w
b1000 0"
1/"
b100 -"
b1001 6"
b100 3"
b1001 I"
b100 H"
b100 k"
b100000000010010100000011 E
b100000000010010100000011 C"
b100000000010010100000011 K"
b1000 9
b1000 ""
b1000 ."
b1000 @"
b10 I
b10 u
b10 ="
1g
1[
1U
1P
b10000000010010010000011 D
b10000000010010010000011 F"
b1000 B
b1000 X"
b1000 p"
b100 C
b100 E"
b100 n"
b1000 ?
b1000 x
b1000 D"
b1000 L"
b1000 g"
b10 .
1'
#100
0'
#125
b100 k
b100 r
b100 ~
b10000 A
b10000 W"
b10000 f"
b1000 G
b1000 9"
b1000 J"
b1000 o"
b100 L
b100 o
b100 U"
b10000 @
b10000 y
b10000 V"
xJ
b1000 -"
b1010 6"
b1000 3"
b1010 I"
b1000 H"
b1000 k"
b1001 0"
1r"
1x"
b110000000010010110000011 E
b110000000010010110000011 C"
b110000000010010110000011 K"
b100000000010010100000011 D
b100000000010010100000011 F"
b10000 B
b10000 X"
b10000 p"
b1000 C
b1000 E"
b1000 n"
b1001 9
b1001 ""
b1001 ."
b1001 @"
b100 d
b100 ("
b100 <"
b100 F
b100 ?"
b100 S"
b1000 `
b1000 $"
b1000 &"
b1000 N"
1\
1V
1_
b1100 ?
b1100 x
b1100 D"
b1100 L"
b1100 g"
b11 .
1'
#150
0'
#175
1J
0%#
b100 .
1'
#200
0'
#225
b100 /#
b101 .
1+
1'
#250
0'
#275
b1 /#
1$
1-#
b110 .
1'
#300
0'
#325
b1 =#
b1 ?#
b111 .
1'
#350
0'
#375
b10 =#
b1000 .
1'
#400
0'
#425
b11 =#
b1001 .
1'
#450
0'
#475
b100 =#
b1010 .
1'
#500
0'
#525
b101 =#
b1011 .
1'
#550
0'
#575
b110 =#
b1100 .
1'
#600
0'
#625
b111 =#
b1101 .
1'
#650
0'
#675
b1000 =#
b1110 .
1'
#700
0'
#725
1"
b1001 =#
b1111 .
1'
#750
0'
#775
1t"
0"
b10 /#
1+#
b0 =#
b0 ?#
b100010001000100100010001000100011001100110011010001000100010001010101010101010110011001100110011101110111011110001000100010001001100110011001101010101010101010111011101110111100110011001100110111011101110111101110111011101111111111111111 *#
b100010001000100100010001000100011001100110011010001000100010001010101010101010110011001100110011101110111011110001000100010001001100110011001101010101010101010111011101110111100110011001100110111011101110111101110111011101111111111111111 3#
b10000 .
b100010001000100100010001000100011001100110011010001000100010001010101010101010110011001100110011101110111011110001000100010001001100110011001101010101010101010111011101110111100110011001100110111011101110111101110111011101111111111111111 !
b100010001000100100010001000100011001100110011010001000100010001010101010101010110011001100110011101110111011110001000100010001001100110011001101010101010101010111011101110111100110011001100110111011101110111101110111011101111111111111111 =
b100010001000100100010001000100011001100110011010001000100010001010101010101010110011001100110011101110111011110001000100010001001100110011001101010101010101010111011101110111100110011001100110111011101110111101110111011101111111111111111 ##
b100010001000100100010001000100011001100110011010001000100010001010101010101010110011001100110011101110111011110001000100010001001100110011001101010101010101010111011101110111100110011001100110111011101110111101110111011101111111111111111 ;#
b100010001000100100010001000100011001100110011010001000100010001010101010101010110011001100110011101110111011110001000100010001001100110011001101010101010101010111011101110111100110011001100110111011101110111101110111011101111111111111111 >#
1'
#800
0'
#825
0t"
b1 =#
b1 ?#
b0 /#
0$
0-#
0+#
b10001 .
1'
#850
0'
#875
b100010001000100100010001000100011001100110011010001000100010001010101010101010110011001100110011101110111011110001000100010001001100110011001101010101010101010111011101110111100110011001100110111011101110100000000000000000000000000000000 0#
b11101110111011101111111111111111 ;
b11101110111011101111111111111111 O"
b11101110111011101111111111111111 w"
b11101110111011101111111111111111 ,#
b0 }"
0J
1~"
1|"
b100010001000100100010001000100011001100110011010001000100010001010101010101010110011001100110011101110111011110001000100010001001100110011001101010101010101010111011101110111100110011001100110111011101110100000000000000000000000000000000 *#
b100010001000100100010001000100011001100110011010001000100010001010101010101010110011001100110011101110111011110001000100010001001100110011001101010101010101010111011101110111100110011001100110111011101110100000000000000000000000000000000 3#
b1100000000000000000000000 !#
b1100000000000000000000000 6#
b100010001000100100010001000100011001100110011010001000100010001010101010101010110011001100110011101110111011110001000100010001001100110011001101010101010101010111011101110111100110011001100110111011101110111101110111011101111111111111111 z"
b100010001000100100010001000100011001100110011010001000100010001010101010101010110011001100110011101110111011110001000100010001001100110011001101010101010101010111011101110111100110011001100110111011101110111101110111011101111111111111111 %
b100010001000100100010001000100011001100110011010001000100010001010101010101010110011001100110011101110111011110001000100010001001100110011001101010101010101010111011101110111100110011001100110111011101110111101110111011101111111111111111 <
b100010001000100100010001000100011001100110011010001000100010001010101010101010110011001100110011101110111011110001000100010001001100110011001101010101010101010111011101110111100110011001100110111011101110111101110111011101111111111111111 y"
b100010001000100100010001000100011001100110011010001000100010001010101010101010110011001100110011101110111011110001000100010001001100110011001101010101010101010111011101110111100110011001100110111011101110111101110111011101111111111111111 :#
b100010001000100100010001000100011001100110011010001000100010001010101010101010110011001100110011101110111011110001000100010001001100110011001101010101010101010111011101110111100110011001100110111011101110111101110111011101111111111111111 "#
b100010001000100100010001000100011001100110011010001000100010001010101010101010110011001100110011101110111011110001000100010001001100110011001101010101010101010111011101110111100110011001100110111011101110111101110111011101111111111111111 5#
1%#
b100 /#
b10 =#
b10010 .
1'
#900
0'
#925
b100010001000100100010001000100011001100110011010001000100010001010101010101010110011001100110011101110111011110001000100010001001100110011001101010101010101010111011101110110000000000000000000000000000000011101110111011101111111111111111 *#
b100010001000100100010001000100011001100110011010001000100010001010101010101010110011001100110011101110111011110001000100010001001100110011001101010101010101010111011101110110000000000000000000000000000000011101110111011101111111111111111 3#
b1000 k
b1000 r
b1000 ~
b11101110111011101111111111111111 ^
b11101110111011101111111111111111 !"
b11101110111011101111111111111111 T"
b11101110111011101111111111111111 b"
b10100 A
b10100 W"
b10100 f"
b1100 G
b1100 9"
b1100 J"
b1100 o"
b100010001000100100010001000100011001100110011010001000100010001010101010101010110011001100110011101110111011110001000100010001001100110011001101010101010101010111011101110110000000000000000000000000000000011101110111011101111111111111111 0#
b11001100110011001101110111011101 ;
b11001100110011001101110111011101 O"
b11001100110011001101110111011101 w"
b11001100110011001101110111011101 ,#
b1000 L
b1000 o
b1000 U"
b11101110111011101111111111111111 M
b11101110111011101111111111111111 \"
b11101110111011101111111111111111 a"
b11101110111011101111111111111111 e"
b11101110111011101111111111111111 i"
b10100 @
b10100 y
b10100 V"
b1100 -"
b1011 6"
b1100 3"
b1011 I"
b1100 H"
b1100 k"
b1010 0"
b100 '#
b1 b
b1 +"
b1 ^"
b1000000000010011000000011 E
b1000000000010011000000011 C"
b1000000000010011000000011 K"
b110000000010010110000011 D
b110000000010010110000011 F"
b11000 B
b11000 X"
b11000 p"
b1100 C
b1100 E"
b1100 n"
b1010 9
b1010 ""
b1010 ."
b1010 @"
b1000 d
b1000 ("
b1000 <"
b1000 F
b1000 ?"
b1000 S"
b1001 `
b1001 $"
b1001 &"
b1001 N"
b100 a
b100 #"
b100 M"
b100 Z"
b100 _"
b100 u"
b1000 O
b1000 '"
b1000 R"
b1000 h"
b11101110111011101111111111111111 :
b11101110111011101111111111111111 Q"
b11101110111011101111111111111111 d"
1T
1N
b11 =#
b11 /#
11#
1$
1-#
b10000 ?
b10000 x
b10000 D"
b10000 L"
b10000 g"
b10011 .
0+
1'
#950
0'
#975
b100010001000100100010001000100011001100110011010001000100010001010101010101010110011001100110011101110111011110001000100010001001100110011001111011101110111011111111111111111100110011001100110111011101110111101110111011101111111111111111 *#
b100010001000100100010001000100011001100110011010001000100010001010101010101010110011001100110011101110111011110001000100010001001100110011001111011101110111011111111111111111100110011001100110111011101110111101110111011101111111111111111 3#
b1100 k
b1100 r
b1100 ~
b11000 A
b11000 W"
b11000 f"
b10101010101010101011101110111011 ;
b10101010101010101011101110111011 O"
b10101010101010101011101110111011 w"
b10101010101010101011101110111011 ,#
b10000 G
b10000 9"
b10000 J"
b10000 o"
b11001100110011001101110111011101 M
b11001100110011001101110111011101 \"
b11001100110011001101110111011101 a"
b11001100110011001101110111011101 e"
b11001100110011001101110111011101 i"
b100010001000100100010001000100011001100110011010001000100010001010101010101010110011001100110011101110111011110001000100010001001100110011001111011101110111011111111111111111100110011001100110111011101110111101110111011101111111111111111 0#
b1100 L
b1100 o
b1100 U"
b11000 @
b11000 y
b11000 V"
b0 ^
b0 !"
b0 T"
b0 b"
b1000 '#
b1011 0"
b0 b
b0 +"
b0 ^"
b10000 -"
b1100 6"
b10000 3"
b1100 I"
b10000 H"
b10000 k"
b1010000000010011010000011 E
b1010000000010011010000011 C"
b1010000000010011010000011 K"
b1001 O
b1001 '"
b1001 R"
b1001 h"
b11001100110011001101110111011101 :
b11001100110011001101110111011101 Q"
b11001100110011001101110111011101 d"
b100 j
b100 P"
b100 c"
b1010 `
b1010 $"
b1010 &"
b1010 N"
b11101110111011101111111111111111 5
b11101110111011101111111111111111 %"
b11101110111011101111111111111111 v"
b1000 a
b1000 #"
b1000 M"
b1000 Z"
b1000 _"
b1000 u"
b1011 9
b1011 ""
b1011 ."
b1011 @"
b1100 d
b1100 ("
b1100 <"
b1100 F
b1100 ?"
b1100 S"
b1000000000010011000000011 D
b1000000000010011000000011 F"
b100000 B
b100000 X"
b100000 p"
b10000 C
b10000 E"
b10000 n"
b10100 ?
b10100 x
b10100 D"
b10100 L"
b10100 g"
b100 =#
b10100 .
1'
#1000
0'
#1025
b10000 k
b10000 r
b10000 ~
b100010001000100100010001000100011001100110011010001000100010001010101010101010110011001100110011101110111011100000000000000000000000000000000101010101010101010111011101110111100110011001100110111011101110111101110111011101111111111111111 *#
b100010001000100100010001000100011001100110011010001000100010001010101010101010110011001100110011101110111011100000000000000000000000000000000101010101010101010111011101110111100110011001100110111011101110111101110111011101111111111111111 3#
b11100 A
b11100 W"
b11100 f"
b10100 G
b10100 9"
b10100 J"
b10100 o"
b10001000100010001001100110011001 ;
b10001000100010001001100110011001 O"
b10001000100010001001100110011001 w"
b10001000100010001001100110011001 ,#
b10000 L
b10000 o
b10000 U"
b100010001000100100010001000100011001100110011010001000100010001010101010101010110011001100110011101110111011100000000000000000000000000000000101010101010101010111011101110111100110011001100110111011101110111101110111011101111111111111111 0#
b10101010101010101011101110111011 M
b10101010101010101011101110111011 \"
b10101010101010101011101110111011 a"
b10101010101010101011101110111011 e"
b10101010101010101011101110111011 i"
b11100 @
b11100 y
b11100 V"
b10100 -"
b1101 6"
b10100 3"
b1101 I"
b10100 H"
b10100 k"
b1100 0"
b1100 '#
b1100000000010011100000011 E
b1100000000010011100000011 C"
b1100000000010011100000011 K"
b1010000000010011010000011 D
b1010000000010011010000011 F"
b101000 B
b101000 X"
b101000 p"
b10100 C
b10100 E"
b10100 n"
b1100 9
b1100 ""
b1100 ."
b1100 @"
b10000 d
b10000 ("
b10000 <"
b10000 F
b10000 ?"
b10000 S"
b1011 `
b1011 $"
b1011 &"
b1011 N"
b0 5
b0 %"
b0 v"
b1100 a
b1100 #"
b1100 M"
b1100 Z"
b1100 _"
b1100 u"
b1010 O
b1010 '"
b1010 R"
b1010 h"
b10101010101010101011101110111011 :
b10101010101010101011101110111011 Q"
b10101010101010101011101110111011 d"
b1000 j
b1000 P"
b1000 c"
b101 =#
b11000 ?
b11000 x
b11000 D"
b11000 L"
b11000 g"
b10101 .
1'
#1050
0'
